Date,Record type,Facility,Professional,Category,Entity,Entity Code
02/04/21,Physical exam note,Lake Forest Orthopedic Associates,Ed Lee,Test,Medical Exam,XXXX
02/05/21,Physical exam note,Lake Forest Orthopedic Associates,Ed Lee,Diagnosis,Knee sprain,XXXX
02/06/21,Physical exam note,Lake Forest Orthopedic Associates,Ed Lee,Symptom,Left knee pain,XXXX
02/07/21,Physical exam note,Lake Forest Orthopedic Associates,Ed Lee,Medication,Ibuprofen 10mg as needed,XXXX
02/08/21,Physical exam note,Lake Forest Orthopedic Associates,Ed Lee,Test,MRI-left knee,XXXX
02/09/21,Physical exam note,Lake Forest Orthopedic Associates,Ed Lee,Symptom,Swelling,XXXX
02/10/21,Physical exam note,Lake Forest Orthopedic Associates,Ed Lee,Symptom,Swelling,XXXX
02/11/21,Physical exam note,Lake Forest Orthopedic Associates,Ed Lee,Medication,Ibuprofen 10mg as needed,XXXX
02/12/21,Physical exam note,Lake Forest Orthopedic Associates,Ed Lee,Test,MRI-left knee,XXXX
02/13/21,Physical exam note,Lake Forest Orthopedic Associates,Ed Lee,Diagnosis,Knee sprain,XXXX
02/14/21,Physical exam note,Tri-Cities MRI Center,George Mackie,Symptom,Left knee pain,XXXX
02/15/21,Physical exam note,Tri-Cities MRI Center,George Mackie,Medication,Ibuprofen 10mg as needed,XXXX
02/16/21,Physical exam note,Tri-Cities MRI Center,George Mackie,Test,MRI-left knee,XXXX
02/17/21,Physical exam note,Lake Forest Orthopedic Associates,Amy Tucker,Diagnosis,Knee sprain,XXXX
02/18/21,Physical exam note,Lake Forest Orthopedic Associates,Amy Tucker,Procedure,Knee scope surgery,XXXX
02/19/21,Physical exam note,Lake Forest Orthopedic Associates,Amy Tucker,Medication,Ibuprofen 10mg as needed,XXXX
02/20/21,Physical exam note,Lake Forest Orthopedic Associates,Amy Tucker,Test,MRI-right knee,XXXX
02/21/21,Surgical note,Lake Forest Orthopedic Associates,Amy Tucker,Procedure,Knee scope surgery,XXXX
